…
Let’s start with a for loop.

``` r
output = vector("list", length = 100)

for (i in 1:100) {
  
  output[[i]] = sim_mean_sd(samp_size = 30)
  
}

bind_rows(output)
```

    ## # A tibble: 100 x 2
    ##     mean    sd
    ##    <dbl> <dbl>
    ##  1  3.67  3.73
    ##  2  3.07  3.23
    ##  3  3.38  3.72
    ##  4  3.01  4.03
    ##  5  3.27  3.97
    ##  6  3.06  3.93
    ##  7  2.86  3.40
    ##  8  2.02  3.57
    ##  9  3.75  3.06
    ## 10  1.99  3.76
    ## # … with 90 more rows
…
